uut.vcd
$date
	Sun Jan 17 18:31:15 2021
$end
$version
	Icarus Verilog
$end
$timescale
	1s
$end
$scope module test $end
$scope module uut $end
$var wire 1 ! CLK $end
$var wire 1 " RST $end
$var reg 8 # LED [7:0] $end
$var reg 32 $ count [31:0] $end
$upscope $end
$upscope $end
$scope module test $end
$var reg 1 ! CLK $end
$upscope $end
$scope module test $end
$var reg 1 " RST $end
$upscope $end
$scope module test $end
$var wire 8 % LED [7:0] $end
$upscope $end
$enddefinitions $end
#0
$dumpvars
bx %
bx $
bx #
0"
0!
$end
#5
1!
#10
0!
#15
1!
#20
0!
#25
1!
#30
0!
#35
1!
#40
0!
#45
1!
#50
0!
#55
1!
#60
0!
#65
1!
#70
0!
#75
1!
#80
0!
#85
1!
#90
0!
#95
1!
#100
0!
1"
#105
b0 #
b0 %
b0 $
1!
#110
0!
#115
1!
#120
0!
#125
1!
#130
0!
#135
1!
#140
0!
#145
1!
#150
0!
#155
1!
#160
0!
#165
1!
#170
0!
#175
1!
#180
0!
#185
1!
#190
0!
#195
1!
#200
0!
0"
#205
b1 $
1!
#210
0!
#215
b10 $
1!
#220
0!
#225
b11 $
1!
#230
0!
#235
b100 $
1!
#240
0!
#245
b101 $
1!
#250
0!
#255
b110 $
1!
#260
0!
#265
b111 $
1!
#270
0!
#275
b1000 $
1!
#280
0!
#285
b1001 $
1!
#290
0!
#295
b1010 $
1!
#300
0!
#305
b1011 $
1!
#310
0!
#315
b1100 $
1!
#320
0!
#325
b1101 $
1!
#330
0!
#335
b1110 $
1!
#340
0!
#345
b1111 $
1!
#350
0!
#355
b1 #
b1 %
b0 $
1!
#360
0!
#365
b1 $
1!
#370
0!
#375
b10 $
1!
#380
0!
#385
b11 $
1!
#390
0!
#395
b100 $
1!
#400
0!
#405
b101 $
1!
#410
0!
#415
b110 $
1!
#420
0!
#425
b111 $
1!
#430
0!
#435
b1000 $
1!
#440
0!
#445
b1001 $
1!
#450
0!
#455
b1010 $
1!
#460
0!
#465
b1011 $
1!
#470
0!
#475
b1100 $
1!
#480
0!
#485
b1101 $
1!
#490
0!
#495
b1110 $
1!
#500
0!
#505
b1111 $
1!
#510
0!
#515
b10 #
b10 %
b0 $
1!
#520
0!
#525
b1 $
1!
#530
0!
#535
b10 $
1!
#540
0!
#545
b11 $
1!
#550
0!
#555
b100 $
1!
#560
0!
#565
b101 $
1!
#570
0!
#575
b110 $
1!
#580
0!
#585
b111 $
1!
#590
0!
#595
b1000 $
1!
#600
0!
#605
b1001 $
1!
#610
0!
#615
b1010 $
1!
#620
0!
#625
b1011 $
1!
#630
0!
#635
b1100 $
1!
#640
0!
#645
b1101 $
1!
#650
0!
#655
b1110 $
1!
#660
0!
#665
b1111 $
1!
#670
0!
#675
b11 #
b11 %
b0 $
1!
#680
0!
#685
b1 $
1!
#690
0!
#695
b10 $
1!
#700
0!
#705
b11 $
1!
#710
0!
#715
b100 $
1!
#720
0!
#725
b101 $
1!
#730
0!
#735
b110 $
1!
#740
0!
#745
b111 $
1!
#750
0!
#755
b1000 $
1!
#760
0!
#765
b1001 $
1!
#770
0!
#775
b1010 $
1!
#780
0!
#785
b1011 $
1!
#790
0!
#795
b1100 $
1!
#800
0!
#805
b1101 $
1!
#810
0!
#815
b1110 $
1!
#820
0!
#825
b1111 $
1!
#830
0!
#835
b100 #
b100 %
b0 $
1!
#840
0!
#845
b1 $
1!
#850
0!
#855
b10 $
1!
#860
0!
#865
b11 $
1!
#870
0!
#875
b100 $
1!
#880
0!
#885
b101 $
1!
#890
0!
#895
b110 $
1!
#900
0!
#905
b111 $
1!
#910
0!
#915
b1000 $
1!
#920
0!
#925
b1001 $
1!
#930
0!
#935
b1010 $
1!
#940
0!
#945
b1011 $
1!
#950
0!
#955
b1100 $
1!
#960
0!
#965
b1101 $
1!
#970
0!
#975
b1110 $
1!
#980
0!
#985
b1111 $
1!
#990
0!
#995
b101 #
b101 %
b0 $
1!
#1000
0!
#1005
b1 $
1!
#1010
0!
#1015
b10 $
1!
#1020
0!
#1025
b11 $
1!
#1030
0!
#1035
b100 $
1!
#1040
0!
#1045
b101 $
1!
#1050
0!
#1055
b110 $
1!
#1060
0!
#1065
b111 $
1!
#1070
0!
#1075
b1000 $
1!
#1080
0!
#1085
b1001 $
1!
#1090
0!
#1095
b1010 $
1!
#1100
0!
#1105
b1011 $
1!
#1110
0!
#1115
b1100 $
1!
#1120
0!
#1125
b1101 $
1!
#1130
0!
#1135
b1110 $
1!
#1140
0!
#1145
b1111 $
1!
#1150
0!
#1155
b110 #
b110 %
b0 $
1!
#1160
0!
#1165
b1 $
1!
#1170
0!
#1175
b10 $
1!
#1180
0!
#1185
b11 $
1!
#1190
0!
#1195
b100 $
1!
